…
Read all daily data for one station, given the station ID:

``` r
dat <- read_dly(id = "USW00014739")

print(dat[1:8])
#> # A tibble: 16,555 x 8
#>    id           year month element value1 mflag1 qflag1 sflag1
#>    <chr>       <int> <int> <chr>    <int> <chr>  <chr>  <chr> 
#>  1 USW00014739  1936     1 TMAX        17 <NA>   <NA>   0     
#>  2 USW00014739  1936     1 TMIN       -61 <NA>   <NA>   0     
#>  3 USW00014739  1936     1 PRCP         0 <NA>   <NA>   0     
#>  4 USW00014739  1936     1 SNOW         0 <NA>   <NA>   0     
#>  5 USW00014739  1936     1 SNWD         0 <NA>   <NA>   0     
#>  6 USW00014739  1936     1 WT16        NA <NA>   <NA>   <NA>  
#>  7 USW00014739  1936     1 WT18        NA <NA>   <NA>   <NA>  
#>  8 USW00014739  1936     2 TMAX       -50 <NA>   <NA>   0     
#>  9 USW00014739  1936     2 TMIN      -133 <NA>   <NA>   0     
#> 10 USW00014739  1936     2 PRCP         0 <NA>   <NA>   0     
#> # ... with 16,545 more rows
```

Transform the data into an easier to use format:

``` r
clean_dly(dat)
#> # A tibble: 30,285 x 7
#>    id          date        prcp  snow  snwd  tmax  tmin
#>    <chr>       <date>     <dbl> <dbl> <dbl> <dbl> <dbl>
#>  1 USW00014739 1936-01-01   0       0     0   1.7  -6.1
#>  2 USW00014739 1936-01-02   5.3     0     0   1.7  -6.1
#>  3 USW00014739 1936-01-03  35.3     0     0  12.2   1.7
#>  4 USW00014739 1936-01-04   0       0     0   7.8   1.7
#>  5 USW00014739 1936-01-05  22.9     0     0   6.1   0.6
#>  6 USW00014739 1936-01-06   1.3     0     0   4.4  -0.6
#>  7 USW00014739 1936-01-07   1.5     3     0   5     0  
#>  8 USW00014739 1936-01-08   0       0     0   4.4  -2.2
#>  9 USW00014739 1936-01-09   5.6     0     0   3.9  -1.7
#> 10 USW00014739 1936-01-10  15.2     0     0   6.7   2.8
#> # ... with 30,275 more rows
```
…
